22

C          2.48982       -0.92072       -0.63274
C          0.95496       -0.87802       -0.48526
C          0.51665        0.43981        0.16829
H          1.02138        0.53684        1.13933
H          0.88557        1.27874       -0.43841
C         -1.00229        0.60433        0.37733
C         -1.29483        1.98275        0.97695
N          0.35392       -1.06510       -1.84060
H         -0.82478        2.09752        1.95966
H         -2.37287        2.13395        1.09736
H         -0.91831        2.77831        0.32526
C         -1.58590       -0.48448        1.27851
O          3.29647       -0.59004        0.22086
O          2.84717       -1.41178       -1.84980
H          0.68598       -1.74239        0.13096
H          0.31650       -0.14877       -2.30131
H         -0.63061       -1.31690       -1.71169
H          1.99438       -1.59313       -2.32047
H         -1.50918        0.55602       -0.59387
H         -2.64986       -0.30381        1.46643
H         -1.07320       -0.51612        2.24583
H         -1.50283       -1.47226        0.81546
