14

H          1.12657        0.43671       -0.84691
C          0.25644        0.00987       -0.33657
N          0.73163       -1.21331        0.39545
H          1.48684       -0.88768        1.01319
H          0.00370       -1.45900        1.07897
C         -0.36464        1.03077        0.61913
O          0.56517        1.35115        1.65723
C         -0.75467       -0.41241       -1.40262
O         -1.51749        0.33780       -1.98937
O         -0.67806       -1.74753       -1.64716
H          0.01665       -2.09850       -1.03298
H         -1.26799        0.62955        1.09179
H         -0.64506        1.95315        0.09901
H          1.17720        2.02046        1.30202
