27

N          2.45285       -0.77141       -1.06080
C          1.12548       -0.72162       -1.76558
C          1.28950       -1.39154       -3.13718
O          2.60458       -1.54433       -3.44993
O          0.38032       -1.72804       -3.87815
C         -0.00490       -1.40846       -0.98414
H         -0.94017       -1.35021       -1.55620
H          0.21206       -2.48019       -0.87867
C         -0.23232       -0.80749        0.37055
C         -0.86009        0.44807        0.65573
C         -0.84984        0.61519        2.04059
C         -1.38067        1.74647        2.67189
H         -1.36483        1.85558        3.75138
C         -1.94128        2.73762        1.86144
H         -2.36452        3.62815        2.32082
C         -1.97152        2.59876        0.47628
H         -2.41806        3.37904       -0.13541
C         -1.43659        1.46078       -0.13857
H         -1.47497        1.36372       -1.21963
N         -0.25620       -0.50167        2.57945
C          0.12244       -1.36322        1.58491
H          0.60295       -2.30186        1.82803
H         -0.12821       -0.65917        3.56965
H          2.50984       -1.67485       -0.57656
H          2.38558       -0.10368       -0.28218
H          0.89495        0.33283       -1.95598
H          3.10394       -1.18552       -2.67163
