24

C          3.01577       -0.88934       -1.18475
C          1.54987       -0.93143       -0.75547
C          1.13599        0.49766       -0.36393
H          1.84801        0.90701        0.36598
H          1.20876        1.16364       -1.23494
C         -0.25102        0.58394        0.23017
C         -1.31686        1.09753       -0.52227
H         -1.15795        1.45373       -1.53767
C         -2.60039        1.15736        0.02217
H         -3.42562        1.55404       -0.56252
C         -2.82136        0.70725        1.31766
C         -1.77753        0.19808        2.08252
H         -1.94163       -0.15387        3.09598
C         -0.49287        0.13674        1.53762
H          0.31958       -0.26302        2.14104
O         -4.09120        0.78238        1.80814
H         -4.09399        0.43326        2.71429
N          0.73432       -1.49319       -1.85758
O          3.86293       -1.27365       -0.20820
O          3.44711       -0.51743       -2.26615
H          1.45803       -1.61350        0.09787
H          0.89421       -0.93447       -2.69802
H         -0.25349       -1.38597       -1.62543
H          4.74516       -1.22646       -0.63325
