13

H          2.01279       -0.03314        1.14327
N          1.64937       -0.30151        0.23079
H          1.91086        0.44625       -0.41629
C          0.17596       -0.37920        0.28335
H         -0.09257       -1.29970        0.81274
C         -0.40205        0.83120        1.00441
H         -0.03657        0.88917        2.03528
H         -0.13790        1.76563        0.49572
H         -1.49575        0.77700        1.03753
C         -0.39305       -0.44014       -1.13493
O          0.01411        0.17546       -2.10930
O         -1.47648       -1.23718       -1.23399
H         -1.71113       -1.19135       -2.18445
