19

N          0.12757       -1.96250       -0.31152
C          0.55076       -0.63097       -0.79643
C          0.13685        0.46127        0.19460
H          0.60643        0.28451        1.17208
H          0.53133        1.42731       -0.14814
C         -1.37486        0.57249        0.36607
H         -1.87755        0.69988       -0.59943
H         -1.79302       -0.33031        0.82477
C         -1.71485        1.76096        1.21748
O         -1.63284        2.93092        0.88304
O         -2.11603        1.42362        2.45599
H         -2.27590        2.28323        2.89875
C          2.07134       -0.61043       -1.02323
O          2.54360       -1.78835       -1.49929
O          2.82554        0.34004       -0.89490
H          0.63897       -2.66333       -0.85710
H         -0.85789       -2.10645       -0.52311
H          0.09181       -0.44713       -1.77525
H          3.50455       -1.62311       -1.60059
