22

H          0.51353       -1.70120       -0.43546
C          0.68105       -0.75122       -0.95186
N          2.12486       -0.44848       -0.87312
H          2.36723       -0.11715        0.05700
H          2.32992        0.31890       -1.51769
C         -0.18213        0.37347       -0.35694
H          0.10246        1.32388       -0.83042
H         -1.23167        0.21169       -0.63945
C         -0.09653        0.52657        1.17550
H          0.95154        0.61873        1.48149
C         -0.70677       -0.67236        1.90423
H         -0.68836       -0.51769        2.98852
H         -0.15113       -1.59174        1.69881
H         -1.74881       -0.82976        1.60523
C         -0.81278        1.80873        1.60962
H         -0.74835        1.94220        2.69484
H         -1.87217        1.78744        1.33248
H         -0.35591        2.68641        1.14011
C          0.28604       -0.94490       -2.41976
O          0.70150       -0.30620       -3.37547
O         -0.65048       -1.90057       -2.59113
H         -0.78466       -1.92159       -3.56171
