14

H         -0.03910       -1.16364        0.99633
C          0.30229       -0.37312        0.31870
N          1.78348       -0.44050        0.21554
H          2.03743       -1.36993       -0.12259
H          2.07513        0.19795       -0.52992
C         -0.14595        1.00085        0.83018
H          0.42138        1.27394        1.72707
H          0.00100        1.78159        0.07559
O         -1.52492        0.98169        1.19206
H         -1.73521        1.86202        1.54997
C         -0.30455       -0.60649       -1.06357
O          0.04983       -0.06347       -2.10095
O         -1.27144       -1.54424       -1.07865
H         -1.56674       -1.57632       -2.01171
